%YAML 1.1
%TAG !u! tag:unity3d.com,2011:
--- !u!114 &11400000
MonoBehaviour:
  m_ObjectHideFlags: 0
  m_CorrespondingSourceObject: {fileID: 0}
  m_PrefabInstance: {fileID: 0}
  m_PrefabAsset: {fileID: 0}
  m_GameObject: {fileID: 0}
  m_Enabled: 1
  m_EditorHideFlags: 0
  m_Script: {fileID: 11500000, guid: 13b75c95f34a00d4e8c04f76b73312e6, type: 3}
  m_Name: EspumaAguaAbajo
  m_EditorClassIdentifier: 
  m_AnimatedSprites:
  - {fileID: -6252842095805192361, guid: 0567b0b56346147429b95f0badfaf21d, type: 3}
  - {fileID: -5071724832780713745, guid: 0567b0b56346147429b95f0badfaf21d, type: 3}
  - {fileID: 1745899727018359964, guid: 0567b0b56346147429b95f0badfaf21d, type: 3}
  - {fileID: 2197306220987478520, guid: 0567b0b56346147429b95f0badfaf21d, type: 3}
  m_MinSpeed: 4
  m_MaxSpeed: 4
  m_AnimationStartTime: 0
  m_AnimationStartFrame: 0
  m_TileColliderType: 0
