%YAML 1.1
%TAG !u! tag:unity3d.com,2011:
--- !u!114 &11400000
MonoBehaviour:
  m_ObjectHideFlags: 0
  m_CorrespondingSourceObject: {fileID: 0}
  m_PrefabInstance: {fileID: 0}
  m_PrefabAsset: {fileID: 0}
  m_GameObject: {fileID: 0}
  m_Enabled: 1
  m_EditorHideFlags: 0
  m_Script: {fileID: 11500000, guid: 13b75c95f34a00d4e8c04f76b73312e6, type: 3}
  m_Name: EspumaAguaArriba
  m_EditorClassIdentifier: 
  m_AnimatedSprites:
  - {fileID: 4584113160916536114, guid: 653dcc5279a5b874b9c08bff68d8f93c, type: 3}
  - {fileID: -6077232165174394191, guid: 653dcc5279a5b874b9c08bff68d8f93c, type: 3}
  - {fileID: 4225130553024786220, guid: 653dcc5279a5b874b9c08bff68d8f93c, type: 3}
  - {fileID: -461204494910861165, guid: 653dcc5279a5b874b9c08bff68d8f93c, type: 3}
  m_MinSpeed: 5
  m_MaxSpeed: 5
  m_AnimationStartTime: 0
  m_AnimationStartFrame: 0
  m_TileColliderType: 0
