%YAML 1.1
%TAG !u! tag:unity3d.com,2011:
--- !u!114 &11400000
MonoBehaviour:
  m_ObjectHideFlags: 0
  m_CorrespondingSourceObject: {fileID: 0}
  m_PrefabInstance: {fileID: 0}
  m_PrefabAsset: {fileID: 0}
  m_GameObject: {fileID: 0}
  m_Enabled: 1
  m_EditorHideFlags: 0
  m_Script: {fileID: 11500000, guid: af7181f404f1447c0a7a17b3070b952b, type: 3}
  m_Name: SpriteShapeProfileSinBorde
  m_EditorClassIdentifier: 
  m_Angles:
  - m_Start: 14
    m_End: 54
    m_Order: 0
    m_Sprites: []
  - m_Start: -42
    m_End: 14
    m_Order: 0
    m_Sprites: []
  m_FillTexture: {fileID: 2800000, guid: b281b91a70a624a0da1c43adc1c30c7b, type: 3}
  m_CornerSprites:
  - m_CornerType: 0
    m_Sprites:
    - {fileID: 0}
  - m_CornerType: 1
    m_Sprites:
    - {fileID: 0}
  - m_CornerType: 2
    m_Sprites:
    - {fileID: 0}
  - m_CornerType: 3
    m_Sprites:
    - {fileID: 0}
  - m_CornerType: 4
    m_Sprites:
    - {fileID: 0}
  - m_CornerType: 5
    m_Sprites:
    - {fileID: 0}
  - m_CornerType: 6
    m_Sprites:
    - {fileID: 0}
  - m_CornerType: 7
    m_Sprites:
    - {fileID: 0}
  m_FillOffset: -0.379
  m_UseSpriteBorders: 0
