%YAML 1.1
%TAG !u! tag:unity3d.com,2011:
--- !u!21 &2100000
Material:
  serializedVersion: 6
  m_ObjectHideFlags: 0
  m_CorrespondingSourceObject: {fileID: 0}
  m_PrefabInstance: {fileID: 0}
  m_PrefabAsset: {fileID: 0}
  m_Name: MaterialWindEffectArbol
  m_Shader: {fileID: -6465566751694194690, guid: b4bd329e75f59fa42a5ab4f4f99d54e7, type: 3}
  m_ShaderKeywords: BOOLEAN_1F1E565B442A4C31A9DE26D50705C388_ON
  m_LightmapFlags: 4
  m_EnableInstancingVariants: 0
  m_DoubleSidedGI: 0
  m_CustomRenderQueue: -1
  stringTagMap: {}
  disabledShaderPasses: []
  m_SavedProperties:
    serializedVersion: 3
    m_TexEnvs:
    - _MainTex:
        m_Texture: {fileID: 0}
        m_Scale: {x: 1, y: 1}
        m_Offset: {x: 0, y: 0}
    - unity_Lightmaps:
        m_Texture: {fileID: 0}
        m_Scale: {x: 1, y: 1}
        m_Offset: {x: 0, y: 0}
    - unity_LightmapsInd:
        m_Texture: {fileID: 0}
        m_Scale: {x: 1, y: 1}
        m_Offset: {x: 0, y: 0}
    - unity_ShadowMasks:
        m_Texture: {fileID: 0}
        m_Scale: {x: 1, y: 1}
        m_Offset: {x: 0, y: 0}
    m_Floats:
    - BOOLEAN_1F1E565B442A4C31A9DE26D50705C388: 1
    - Vector1_254aa84fd94241eda0f140d8989112a8: 1.7
    - Vector1_c14eeb5a71db4a4e9d07a0c6cf86cfa8: 0.5
    - Vector1_ef1bb160ea12457bb6467d6156fd0434: 0.2
    m_Colors: []
  m_BuildTextureStacks: []
