%YAML 1.1
%TAG !u! tag:unity3d.com,2011:
--- !u!21 &2100000
Material:
  serializedVersion: 6
  m_ObjectHideFlags: 0
  m_CorrespondingSourceObject: {fileID: 0}
  m_PrefabInstance: {fileID: 0}
  m_PrefabAsset: {fileID: 0}
  m_Name: MaterialPortal2
  m_Shader: {fileID: -6465566751694194690, guid: fed327c3800ad2d48be117ba9b861976, type: 3}
  m_ShaderKeywords: ENUM_68D01D2E91334A7EB6968968FCE47DB8_TRASLADAR
  m_LightmapFlags: 4
  m_EnableInstancingVariants: 0
  m_DoubleSidedGI: 0
  m_CustomRenderQueue: -1
  stringTagMap: {}
  disabledShaderPasses: []
  m_SavedProperties:
    serializedVersion: 3
    m_TexEnvs:
    - Texture2D_7fefdedf06b74175bb931e9d55c4af01:
        m_Texture: {fileID: 10300, guid: 0000000000000000f000000000000000, type: 0}
        m_Scale: {x: 1, y: 1}
        m_Offset: {x: 0, y: 0}
    - _MainTex:
        m_Texture: {fileID: 0}
        m_Scale: {x: 1, y: 1}
        m_Offset: {x: 0, y: 0}
    - unity_Lightmaps:
        m_Texture: {fileID: 0}
        m_Scale: {x: 1, y: 1}
        m_Offset: {x: 0, y: 0}
    - unity_LightmapsInd:
        m_Texture: {fileID: 0}
        m_Scale: {x: 1, y: 1}
        m_Offset: {x: 0, y: 0}
    - unity_ShadowMasks:
        m_Texture: {fileID: 0}
        m_Scale: {x: 1, y: 1}
        m_Offset: {x: 0, y: 0}
    m_Floats:
    - BOOLEAN_6F04AD1261F848E1977EB3AAD32445DB: 0
    - ENUM_68D01D2E91334A7EB6968968FCE47DB8: 4
    - Vector1_3aed88c60bb842d8b9c05bd1a17d2d06: 1
    - Vector1_5990948b757949e3a1b7365eafbcb58c: 10
    - Vector1_6beddcdac60f427d825081bd5ab0f850: 1
    m_Colors:
    - Color_8c77c9413270441ca6f7b87f44bb85b8: {r: 5.3403144, g: 0, b: 0.28902325, a: 0}
  m_BuildTextureStacks: []
