%YAML 1.1
%TAG !u! tag:unity3d.com,2011:
--- !u!21 &2100000
Material:
  serializedVersion: 6
  m_ObjectHideFlags: 0
  m_CorrespondingSourceObject: {fileID: 0}
  m_PrefabInstance: {fileID: 0}
  m_PrefabAsset: {fileID: 0}
  m_Name: MaterialFogLateral
  m_Shader: {fileID: -6465566751694194690, guid: 71fa7404492586a4095cef1363693da9, type: 3}
  m_ShaderKeywords: 
  m_LightmapFlags: 4
  m_EnableInstancingVariants: 0
  m_DoubleSidedGI: 0
  m_CustomRenderQueue: -1
  stringTagMap: {}
  disabledShaderPasses: []
  m_SavedProperties:
    serializedVersion: 3
    m_TexEnvs:
    - _MainTex:
        m_Texture: {fileID: 0}
        m_Scale: {x: 1, y: 1}
        m_Offset: {x: 0, y: 0}
    - unity_Lightmaps:
        m_Texture: {fileID: 0}
        m_Scale: {x: 1, y: 1}
        m_Offset: {x: 0, y: 0}
    - unity_LightmapsInd:
        m_Texture: {fileID: 0}
        m_Scale: {x: 1, y: 1}
        m_Offset: {x: 0, y: 0}
    - unity_ShadowMasks:
        m_Texture: {fileID: 0}
        m_Scale: {x: 1, y: 1}
        m_Offset: {x: 0, y: 0}
    m_Floats:
    - Vector1_76aa2dea38a34a1684bf0c45602a7575: 0.5
    m_Colors:
    - Color_471543afbfea47aea31a68fcc9129b9b: {r: 0.3773585, g: 0.3773585, b: 0.3773585, a: 0}
    - Vector2_8f8b816a70a64616bee665d99e735480: {r: 0.38, g: 0.77, b: 0, a: 0}
    - Vector2_b247616cf0034aedb9e4f277976ce5ba: {r: 0.9, g: 0, b: 0, a: 0}
  m_BuildTextureStacks: []
