%YAML 1.1
%TAG !u! tag:unity3d.com,2011:
--- !u!114 &11400000
MonoBehaviour:
  m_ObjectHideFlags: 0
  m_CorrespondingSourceObject: {fileID: 0}
  m_PrefabInstance: {fileID: 0}
  m_PrefabAsset: {fileID: 0}
  m_GameObject: {fileID: 0}
  m_Enabled: 1
  m_EditorHideFlags: 0
  m_Script: {fileID: 11500000, guid: 7a23b906fcb58cc4eb4f50e4dbf3a943, type: 3}
  m_Name: LibroAumentado
  m_EditorClassIdentifier: 
  nombre: LibroAumentado
  description: 
  porcentajeDeSalida: 0
  objetoAsociado: {fileID: 0}
  icon: {fileID: 7991816745748391132, guid: 3477c57c765b93143983086138b9ae65, type: 3}
  type: 0
  tipoPocion: 0
  estadisticasPocion: 0
  materialsToCraft: []
