%YAML 1.1
%TAG !u! tag:unity3d.com,2011:
--- !u!114 &11400000
MonoBehaviour:
  m_ObjectHideFlags: 0
  m_CorrespondingSourceObject: {fileID: 0}
  m_PrefabInstance: {fileID: 0}
  m_PrefabAsset: {fileID: 0}
  m_GameObject: {fileID: 0}
  m_Enabled: 1
  m_EditorHideFlags: 0
  m_Script: {fileID: 11500000, guid: 7a23b906fcb58cc4eb4f50e4dbf3a943, type: 3}
  m_Name: SlotVacio
  m_EditorClassIdentifier: 
  nombre: 
  description: 
  porcentajeDeSalida: 0
  objetoAsociado: {fileID: 0}
  icon: {fileID: 21300000, guid: 3018bd28e19e05f4b82b15a80a875c19, type: 3}
  type: 1
  tipoPocion: 0
  estadisticasPocion: 0
  materialsToCraft: []
