%YAML 1.1
%TAG !u! tag:unity3d.com,2011:
--- !u!21 &2100000
Material:
  serializedVersion: 6
  m_ObjectHideFlags: 0
  m_CorrespondingSourceObject: {fileID: 0}
  m_PrefabInstance: {fileID: 0}
  m_PrefabAsset: {fileID: 0}
  m_Name: MaterialBlueCrystal
  m_Shader: {fileID: -6465566751694194690, guid: caf66555e4ed9374cbd95b8a4caa274f, type: 3}
  m_ShaderKeywords: 
  m_LightmapFlags: 4
  m_EnableInstancingVariants: 0
  m_DoubleSidedGI: 0
  m_CustomRenderQueue: -1
  stringTagMap: {}
  disabledShaderPasses: []
  m_SavedProperties:
    serializedVersion: 3
    m_TexEnvs:
    - Texture2D_1f8066cdb0d34b9c806a745741692482:
        m_Texture: {fileID: 0}
        m_Scale: {x: 1, y: 1}
        m_Offset: {x: 0, y: 0}
    - _MainTex:
        m_Texture: {fileID: 2800000, guid: 5cd42438b90795041ae0ea89271eca8e, type: 3}
        m_Scale: {x: 1, y: 1}
        m_Offset: {x: 0, y: 0}
    - unity_Lightmaps:
        m_Texture: {fileID: 0}
        m_Scale: {x: 1, y: 1}
        m_Offset: {x: 0, y: 0}
    - unity_LightmapsInd:
        m_Texture: {fileID: 0}
        m_Scale: {x: 1, y: 1}
        m_Offset: {x: 0, y: 0}
    - unity_ShadowMasks:
        m_Texture: {fileID: 0}
        m_Scale: {x: 1, y: 1}
        m_Offset: {x: 0, y: 0}
    m_Floats:
    - Vector1_2062e3507c1e4d628df8cf695163729b: 0.4
    - Vector1_20b8fc65252f451a988ff728ed7920c4: 1.05
    - Vector1_91eefdcce9574d0b8f6218e4f6ceb900: 0
    - Vector1_f120352f3c7d4e918523a693216c8c95: 9.8
    m_Colors:
    - Color_73f450ecdf994b22bb6e2de607b136a0: {r: 1, g: 1, b: 1, a: 0}
    - Color_ea0bf1f1b9a148ada9e586bb52a63c7b: {r: 0, g: 0.018137256, b: 0.03125, a: 0}
    - Color_fc846df57bfe45ec90cb9063aee8f935: {r: 0.2641509, g: 0.2641509, b: 0.2641509, a: 0}
  m_BuildTextureStacks: []
