%YAML 1.1
%TAG !u! tag:unity3d.com,2011:
--- !u!1 &7527689622563434872
GameObject:
  m_ObjectHideFlags: 0
  m_CorrespondingSourceObject: {fileID: 0}
  m_PrefabInstance: {fileID: 0}
  m_PrefabAsset: {fileID: 0}
  serializedVersion: 6
  m_Component:
  - component: {fileID: 5731182920999397059}
  - component: {fileID: 3537800229012864954}
  m_Layer: 31
  m_Name: TilemapAnimado
  m_TagString: Untagged
  m_Icon: {fileID: 0}
  m_NavMeshLayer: 0
  m_StaticEditorFlags: 0
  m_IsActive: 1
--- !u!4 &5731182920999397059
Transform:
  m_ObjectHideFlags: 0
  m_CorrespondingSourceObject: {fileID: 0}
  m_PrefabInstance: {fileID: 0}
  m_PrefabAsset: {fileID: 0}
  m_GameObject: {fileID: 7527689622563434872}
  m_LocalRotation: {x: 0, y: 0, z: 0, w: 1}
  m_LocalPosition: {x: 0, y: 0, z: 0}
  m_LocalScale: {x: 1, y: 1, z: 1}
  m_Children:
  - {fileID: 5020703171138346830}
  m_Father: {fileID: 0}
  m_RootOrder: 0
  m_LocalEulerAnglesHint: {x: 0, y: 0, z: 0}
--- !u!156049354 &3537800229012864954
Grid:
  m_ObjectHideFlags: 0
  m_CorrespondingSourceObject: {fileID: 0}
  m_PrefabInstance: {fileID: 0}
  m_PrefabAsset: {fileID: 0}
  m_GameObject: {fileID: 7527689622563434872}
  m_Enabled: 1
  m_CellSize: {x: 1, y: 1, z: 0}
  m_CellGap: {x: 0, y: 0, z: 0}
  m_CellLayout: 0
  m_CellSwizzle: 0
--- !u!1 &8436293689140448886
GameObject:
  m_ObjectHideFlags: 0
  m_CorrespondingSourceObject: {fileID: 0}
  m_PrefabInstance: {fileID: 0}
  m_PrefabAsset: {fileID: 0}
  serializedVersion: 6
  m_Component:
  - component: {fileID: 5020703171138346830}
  - component: {fileID: 466340397948280088}
  - component: {fileID: 2983679952313522647}
  m_Layer: 0
  m_Name: Layer1
  m_TagString: Untagged
  m_Icon: {fileID: 0}
  m_NavMeshLayer: 0
  m_StaticEditorFlags: 0
  m_IsActive: 1
--- !u!4 &5020703171138346830
Transform:
  m_ObjectHideFlags: 0
  m_CorrespondingSourceObject: {fileID: 0}
  m_PrefabInstance: {fileID: 0}
  m_PrefabAsset: {fileID: 0}
  m_GameObject: {fileID: 8436293689140448886}
  m_LocalRotation: {x: -0, y: -0, z: -0, w: 1}
  m_LocalPosition: {x: 0, y: 0, z: 0}
  m_LocalScale: {x: 1, y: 1, z: 1}
  m_Children: []
  m_Father: {fileID: 5731182920999397059}
  m_RootOrder: 0
  m_LocalEulerAnglesHint: {x: 0, y: 0, z: 0}
--- !u!1839735485 &466340397948280088
Tilemap:
  m_ObjectHideFlags: 0
  m_CorrespondingSourceObject: {fileID: 0}
  m_PrefabInstance: {fileID: 0}
  m_PrefabAsset: {fileID: 0}
  m_GameObject: {fileID: 8436293689140448886}
  m_Enabled: 1
  m_Tiles:
  - first: {x: -2, y: -2, z: 0}
    second:
      serializedVersion: 2
      m_TileIndex: 5
      m_TileSpriteIndex: 5
      m_TileMatrixIndex: 0
      m_TileColorIndex: 0
      m_TileObjectToInstantiateIndex: 65535
      dummyAlignment: 0
      m_AllTileFlags: 0
  - first: {x: 0, y: -2, z: 0}
    second:
      serializedVersion: 2
      m_TileIndex: 6
      m_TileSpriteIndex: 6
      m_TileMatrixIndex: 0
      m_TileColorIndex: 0
      m_TileObjectToInstantiateIndex: 65535
      dummyAlignment: 0
      m_AllTileFlags: 0
  - first: {x: 2, y: -2, z: 0}
    second:
      serializedVersion: 2
      m_TileIndex: 7
      m_TileSpriteIndex: 7
      m_TileMatrixIndex: 0
      m_TileColorIndex: 0
      m_TileObjectToInstantiateIndex: 65535
      dummyAlignment: 0
      m_AllTileFlags: 0
  - first: {x: -2, y: 0, z: 0}
    second:
      serializedVersion: 2
      m_TileIndex: 3
      m_TileSpriteIndex: 3
      m_TileMatrixIndex: 0
      m_TileColorIndex: 0
      m_TileObjectToInstantiateIndex: 65535
      dummyAlignment: 0
      m_AllTileFlags: 0
  - first: {x: 0, y: 0, z: 0}
    second:
      serializedVersion: 2
      m_TileIndex: 4
      m_TileSpriteIndex: 4
      m_TileMatrixIndex: 0
      m_TileColorIndex: 0
      m_TileObjectToInstantiateIndex: 65535
      dummyAlignment: 0
      m_AllTileFlags: 0
  - first: {x: -2, y: 2, z: 0}
    second:
      serializedVersion: 2
      m_TileIndex: 0
      m_TileSpriteIndex: 0
      m_TileMatrixIndex: 0
      m_TileColorIndex: 0
      m_TileObjectToInstantiateIndex: 65535
      dummyAlignment: 0
      m_AllTileFlags: 0
  - first: {x: 0, y: 2, z: 0}
    second:
      serializedVersion: 2
      m_TileIndex: 1
      m_TileSpriteIndex: 1
      m_TileMatrixIndex: 0
      m_TileColorIndex: 0
      m_TileObjectToInstantiateIndex: 65535
      dummyAlignment: 0
      m_AllTileFlags: 0
  - first: {x: 2, y: 2, z: 0}
    second:
      serializedVersion: 2
      m_TileIndex: 2
      m_TileSpriteIndex: 2
      m_TileMatrixIndex: 0
      m_TileColorIndex: 0
      m_TileObjectToInstantiateIndex: 65535
      dummyAlignment: 0
      m_AllTileFlags: 0
  m_AnimatedTiles:
  - first: {x: -2, y: -2, z: 0}
    second:
      m_AnimatedSprites:
      - {fileID: 7746106052356873941, guid: 0c92eddd168eeef4cb2d2c9786c951f2, type: 3}
      - {fileID: -2969345934603346414, guid: 0c92eddd168eeef4cb2d2c9786c951f2, type: 3}
      - {fileID: 5415928408785977217, guid: 0c92eddd168eeef4cb2d2c9786c951f2, type: 3}
      m_AnimationSpeed: 4
      m_AnimationTimeOffset: 0
      m_IsLooping: 1
  - first: {x: 0, y: -2, z: 0}
    second:
      m_AnimatedSprites:
      - {fileID: -8426487437065424998, guid: 83087aa1dc589d5498b89f4aeb5b5e1e, type: 3}
      - {fileID: 5239319336950851182, guid: 83087aa1dc589d5498b89f4aeb5b5e1e, type: 3}
      - {fileID: 96319604560943197, guid: 83087aa1dc589d5498b89f4aeb5b5e1e, type: 3}
      - {fileID: 4370818987290280049, guid: 83087aa1dc589d5498b89f4aeb5b5e1e, type: 3}
      m_AnimationSpeed: 4
      m_AnimationTimeOffset: 0
      m_IsLooping: 1
  - first: {x: 2, y: -2, z: 0}
    second:
      m_AnimatedSprites:
      - {fileID: -4271621994626942968, guid: 523489eb0e33795419b89192cff828fa, type: 3}
      - {fileID: -4202135852367355791, guid: 523489eb0e33795419b89192cff828fa, type: 3}
      - {fileID: 2992440228927719572, guid: 523489eb0e33795419b89192cff828fa, type: 3}
      - {fileID: -824612166679273274, guid: 523489eb0e33795419b89192cff828fa, type: 3}
      m_AnimationSpeed: 5
      m_AnimationTimeOffset: 0
      m_IsLooping: 1
  - first: {x: -2, y: 0, z: 0}
    second:
      m_AnimatedSprites:
      - {fileID: 834964386131759121, guid: 1780f9c6eb6a70848af1460e2e87882e, type: 3}
      - {fileID: 3086941385569513856, guid: 1780f9c6eb6a70848af1460e2e87882e, type: 3}
      - {fileID: -473923657305893333, guid: 1780f9c6eb6a70848af1460e2e87882e, type: 3}
      - {fileID: 3912710358076368025, guid: 1780f9c6eb6a70848af1460e2e87882e, type: 3}
      m_AnimationSpeed: 4
      m_AnimationTimeOffset: 0
      m_IsLooping: 1
  - first: {x: 0, y: 0, z: 0}
    second:
      m_AnimatedSprites:
      - {fileID: -4049928460736677310, guid: 1780f9c6eb6a70848af1460e2e87882e, type: 3}
      - {fileID: -4739120163876854951, guid: 1780f9c6eb6a70848af1460e2e87882e, type: 3}
      - {fileID: 4547366172461071, guid: 1780f9c6eb6a70848af1460e2e87882e, type: 3}
      - {fileID: 7957753081439217703, guid: 1780f9c6eb6a70848af1460e2e87882e, type: 3}
      m_AnimationSpeed: 4
      m_AnimationTimeOffset: 0
      m_IsLooping: 1
  - first: {x: -2, y: 2, z: 0}
    second:
      m_AnimatedSprites:
      - {fileID: 7065742249390416344, guid: da557cac616bc2d4ba4b3cf26dcd93f7, type: 3}
      - {fileID: -6995287041110841113, guid: da557cac616bc2d4ba4b3cf26dcd93f7, type: 3}
      - {fileID: -3402512908525122085, guid: da557cac616bc2d4ba4b3cf26dcd93f7, type: 3}
      - {fileID: 4232915110587285716, guid: da557cac616bc2d4ba4b3cf26dcd93f7, type: 3}
      m_AnimationSpeed: 6.596697
      m_AnimationTimeOffset: 0
      m_IsLooping: 1
  - first: {x: 0, y: 2, z: 0}
    second:
      m_AnimatedSprites:
      - {fileID: -6252842095805192361, guid: 0567b0b56346147429b95f0badfaf21d, type: 3}
      - {fileID: -5071724832780713745, guid: 0567b0b56346147429b95f0badfaf21d, type: 3}
      - {fileID: 1745899727018359964, guid: 0567b0b56346147429b95f0badfaf21d, type: 3}
      - {fileID: 2197306220987478520, guid: 0567b0b56346147429b95f0badfaf21d, type: 3}
      m_AnimationSpeed: 4
      m_AnimationTimeOffset: 0
      m_IsLooping: 1
  - first: {x: 2, y: 2, z: 0}
    second:
      m_AnimatedSprites:
      - {fileID: 4584113160916536114, guid: 653dcc5279a5b874b9c08bff68d8f93c, type: 3}
      - {fileID: -6077232165174394191, guid: 653dcc5279a5b874b9c08bff68d8f93c, type: 3}
      - {fileID: 4225130553024786220, guid: 653dcc5279a5b874b9c08bff68d8f93c, type: 3}
      - {fileID: -461204494910861165, guid: 653dcc5279a5b874b9c08bff68d8f93c, type: 3}
      m_AnimationSpeed: 5
      m_AnimationTimeOffset: 0
      m_IsLooping: 1
  m_TileAssetArray:
  - m_RefCount: 1
    m_Data: {fileID: 11400000, guid: 1a5d30c736d093d4a82b29b482a84825, type: 2}
  - m_RefCount: 1
    m_Data: {fileID: 11400000, guid: 9f77ee7f675957740ab5520f0471e296, type: 2}
  - m_RefCount: 1
    m_Data: {fileID: 11400000, guid: 4a319568e6ddf744885af988cd03a526, type: 2}
  - m_RefCount: 1
    m_Data: {fileID: 11400000, guid: a119d6ee98b15ec4cb99fd32eb9ed823, type: 2}
  - m_RefCount: 1
    m_Data: {fileID: 11400000, guid: f47ad388943614c458691bf9ace17da3, type: 2}
  - m_RefCount: 1
    m_Data: {fileID: 11400000, guid: 58347f5c3d713624cbfcaff1ad0290dc, type: 2}
  - m_RefCount: 1
    m_Data: {fileID: 11400000, guid: d4d8ac1fbb1955143810bab2b29154aa, type: 2}
  - m_RefCount: 1
    m_Data: {fileID: 11400000, guid: 3546bf838324afd4387f8f279ee6fdec, type: 2}
  m_TileSpriteArray:
  - m_RefCount: 1
    m_Data: {fileID: 4232915110587285716, guid: da557cac616bc2d4ba4b3cf26dcd93f7, type: 3}
  - m_RefCount: 1
    m_Data: {fileID: 2197306220987478520, guid: 0567b0b56346147429b95f0badfaf21d, type: 3}
  - m_RefCount: 1
    m_Data: {fileID: -461204494910861165, guid: 653dcc5279a5b874b9c08bff68d8f93c, type: 3}
  - m_RefCount: 1
    m_Data: {fileID: 3912710358076368025, guid: 1780f9c6eb6a70848af1460e2e87882e, type: 3}
  - m_RefCount: 1
    m_Data: {fileID: 7957753081439217703, guid: 1780f9c6eb6a70848af1460e2e87882e, type: 3}
  - m_RefCount: 1
    m_Data: {fileID: 5415928408785977217, guid: 0c92eddd168eeef4cb2d2c9786c951f2, type: 3}
  - m_RefCount: 1
    m_Data: {fileID: 4370818987290280049, guid: 83087aa1dc589d5498b89f4aeb5b5e1e, type: 3}
  - m_RefCount: 1
    m_Data: {fileID: -824612166679273274, guid: 523489eb0e33795419b89192cff828fa, type: 3}
  m_TileMatrixArray:
  - m_RefCount: 8
    m_Data:
      e00: 1
      e01: 0
      e02: 0
      e03: 0
      e10: 0
      e11: 1
      e12: 0
      e13: 0
      e20: 0
      e21: 0
      e22: 1
      e23: 0
      e30: 0
      e31: 0
      e32: 0
      e33: 1
  m_TileColorArray:
  - m_RefCount: 8
    m_Data: {r: 1, g: 1, b: 1, a: 1}
  m_TileObjectToInstantiateArray: []
  m_AnimationFrameRate: 1
  m_Color: {r: 1, g: 1, b: 1, a: 1}
  m_Origin: {x: -2, y: -2, z: 0}
  m_Size: {x: 5, y: 5, z: 1}
  m_TileAnchor: {x: 0.5, y: 0.5, z: 0}
  m_TileOrientation: 0
  m_TileOrientationMatrix:
    e00: 1
    e01: 0
    e02: 0
    e03: 0
    e10: 0
    e11: 1
    e12: 0
    e13: 0
    e20: 0
    e21: 0
    e22: 1
    e23: 0
    e30: 0
    e31: 0
    e32: 0
    e33: 1
--- !u!483693784 &2983679952313522647
TilemapRenderer:
  m_ObjectHideFlags: 0
  m_CorrespondingSourceObject: {fileID: 0}
  m_PrefabInstance: {fileID: 0}
  m_PrefabAsset: {fileID: 0}
  m_GameObject: {fileID: 8436293689140448886}
  m_Enabled: 1
  m_CastShadows: 0
  m_ReceiveShadows: 0
  m_DynamicOccludee: 0
  m_MotionVectors: 1
  m_LightProbeUsage: 0
  m_ReflectionProbeUsage: 0
  m_RayTracingMode: 0
  m_RayTraceProcedural: 0
  m_RenderingLayerMask: 1
  m_RendererPriority: 0
  m_Materials:
  - {fileID: 2100000, guid: a97c105638bdf8b4a8650670310a4cd3, type: 2}
  m_StaticBatchInfo:
    firstSubMesh: 0
    subMeshCount: 0
  m_StaticBatchRoot: {fileID: 0}
  m_ProbeAnchor: {fileID: 0}
  m_LightProbeVolumeOverride: {fileID: 0}
  m_ScaleInLightmap: 1
  m_ReceiveGI: 1
  m_PreserveUVs: 0
  m_IgnoreNormalsForChartDetection: 0
  m_ImportantGI: 0
  m_StitchLightmapSeams: 1
  m_SelectedEditorRenderState: 0
  m_MinimumChartSize: 4
  m_AutoUVMaxDistance: 0.5
  m_AutoUVMaxAngle: 89
  m_LightmapParameters: {fileID: 0}
  m_SortingLayerID: 0
  m_SortingLayer: 0
  m_SortingOrder: 0
  m_ChunkSize: {x: 32, y: 32, z: 32}
  m_ChunkCullingBounds: {x: 0, y: 0, z: 0}
  m_MaxChunkCount: 16
  m_MaxFrameAge: 16
  m_SortOrder: 0
  m_Mode: 0
  m_DetectChunkCullingBounds: 0
  m_MaskInteraction: 0
--- !u!114 &5970605187612137764
MonoBehaviour:
  m_ObjectHideFlags: 0
  m_CorrespondingSourceObject: {fileID: 0}
  m_PrefabInstance: {fileID: 0}
  m_PrefabAsset: {fileID: 0}
  m_GameObject: {fileID: 0}
  m_Enabled: 1
  m_EditorHideFlags: 0
  m_Script: {fileID: 12395, guid: 0000000000000000e000000000000000, type: 0}
  m_Name: Palette Settings
  m_EditorClassIdentifier: 
  cellSizing: 0
  m_TransparencySortMode: 0
  m_TransparencySortAxis: {x: 0, y: 0, z: 1}
